%YAML 1.1
%TAG !u! tag:unity3d.com,2011:
--- !u!114 &11400000
MonoBehaviour:
  m_ObjectHideFlags: 0
  m_CorrespondingSourceObject: {fileID: 0}
  m_PrefabInstance: {fileID: 0}
  m_PrefabAsset: {fileID: 0}
  m_GameObject: {fileID: 0}
  m_Enabled: 1
  m_EditorHideFlags: 0
  m_Script: {fileID: 11500000, guid: c6aaf1e8b73d61a449034bf80bec9eaa, type: 3}
  m_Name: TerrainSettings_DetailInstancingDemoTerrain_12040
  m_EditorClassIdentifier: 
  terrainDataGUID: bf36b8001ebd31f49a5acfa5ab097ae9
  maxDetailDistance: 500
  maxTreeDistance: 500
  windVector: {x: 0.4, y: 0.8}
  healthyDryNoiseTexture: {fileID: 2800000, guid: 5d221d423a7e56d4d8e9bff0c4a73886,
    type: 3}
  windWaveNormalTexture: {fileID: 2800000, guid: 78384f2a63e207744a3b1821e032ee03,
    type: 3}
  autoSPCellSize: 1
  preferedSPCellSize: 125
  detailDensity: 1
  warningText: 
--- !u!114 &114004650160413632
MonoBehaviour:
  m_ObjectHideFlags: 0
  m_CorrespondingSourceObject: {fileID: 0}
  m_PrefabInstance: {fileID: 0}
  m_PrefabAsset: {fileID: 0}
  m_GameObject: {fileID: 0}
  m_Enabled: 1
  m_EditorHideFlags: 0
  m_Script: {fileID: 11500000, guid: bdeaa1ff97134aec9c8aae1beccb5637, type: 3}
  m_Name: Grass_004DiffuseMap_0_7284
  m_EditorClassIdentifier: 
  prefabObject: {fileID: 0}
  isShadowCasting: 1
  useCustomShadowDistance: 0
  shadowDistance: 0
  shadowLODMap:
  - 0
  - 4
  - 0
  - 0
  - 1
  - 5
  - 0
  - 0
  - 2
  - 6
  - 0
  - 0
  - 3
  - 7
  - 0
  - 0
  useOriginalShaderForShadow: 0
  cullShadows: 0
  minDistance: 0
  maxDistance: 500
  isFrustumCulling: 1
  isOcclusionCulling: 1
  frustumOffset: 0.2
  minCullingDistance: 0
  boundsOffset: {x: 0, y: 0, z: 0}
  isLODCrossFade: 0
  isLODCrossFadeAnimate: 1
  lodFadeTransitionWidth: 0.1
  lodBiasAdjustment: 1
  billboard:
    billboardQuality: 1
    atlasResolution: 2048
    frameCount: 8
    replaceLODCullWithBillboard: 1
    isOverridingOriginalCutoff: 0
    cutoffOverride: -1
    billboardBrightness: 0.5
    billboardDistance: 0.8
    quadSize: 0
    yPivotOffset: 0
    albedoAtlasTexture: {fileID: 0}
    normalAtlasTexture: {fileID: 0}
    customBillboardInLODGroup: 0
    useCustomBillboard: 0
    customBillboardMesh: {fileID: 0}
    customBillboardMaterial: {fileID: 0}
    isBillboardShadowCasting: 0
    billboardFaceCamPos: 0
  isBillboardDisabled: 0
  useGeneratedBillboard: 0
  checkedForBillboardExtensions: 0
  autoUpdateTransformData: 0
  treeType: 0
  warningText: 
  prototypeIndex: 0
  detailRenderMode: 0
  usePrototypeMesh: 0
  prototypeTexture: {fileID: 2800000, guid: 5d71e595b7dfe5b4fa663fe7017f6643, type: 3}
  useCustomMaterialForTextureDetail: 0
  textureDetailCustomMaterial: {fileID: 0}
  detailDensity: 1
  useCrossQuads: 1
  quadCount: 4
  isBillboard: 0
  billboardDistance: 0.9
  billboardDistanceDebug: 0
  billboardDistanceDebugColor: {r: 1, g: 0, b: 0, a: 1}
  billboardFaceCamPos: 0
  detailHealthyColor: {r: 0.84044266, g: 0.8455882, b: 0.4725346, a: 1}
  detailDryColor: {r: 0.94060373, g: 0.9411765, b: 0.899654, a: 1}
  noiseSpread: 0.1
  ambientOcclusion: 0.5
  gradientPower: 0.3
  windWaveTintColor: {r: 0.8905232, g: 0.8933823, b: 0.6860943, a: 1}
  windIdleSway: 0.6
  windWavesOn: 1
  windWaveSize: 0.5
  windWaveTint: 0.5
  windWaveSway: 0.3
  detailScale: {x: 1.3, y: 1.4, z: 1.3, w: 1.4}
  useCustomHealthyDryNoiseTexture: 0
  healthyDryNoiseTexture: {fileID: 0}
--- !u!114 &114008049678179986
MonoBehaviour:
  m_ObjectHideFlags: 0
  m_CorrespondingSourceObject: {fileID: 0}
  m_PrefabInstance: {fileID: 0}
  m_PrefabAsset: {fileID: 0}
  m_GameObject: {fileID: 0}
  m_Enabled: 1
  m_EditorHideFlags: 0
  m_Script: {fileID: 11500000, guid: bdeaa1ff97134aec9c8aae1beccb5637, type: 3}
  m_Name: L_plant_03
  m_EditorClassIdentifier: 
  prefabObject: {fileID: 1810418710323934, guid: f749571d132ad4041a5bf031bcf385e0,
    type: 3}
  isShadowCasting: 1
  useCustomShadowDistance: 0
  shadowDistance: 0
  shadowLODMap:
  - 0
  - 4
  - 0
  - 0
  - 1
  - 5
  - 0
  - 0
  - 2
  - 6
  - 0
  - 0
  - 3
  - 7
  - 0
  - 0
  useOriginalShaderForShadow: 0
  cullShadows: 0
  minDistance: 0
  maxDistance: 250
  isFrustumCulling: 1
  isOcclusionCulling: 1
  frustumOffset: 0.2
  minCullingDistance: 0
  boundsOffset: {x: 0, y: 0, z: 0}
  isLODCrossFade: 0
  isLODCrossFadeAnimate: 1
  lodFadeTransitionWidth: 0.1
  lodBiasAdjustment: 1
  billboard:
    billboardQuality: 1
    atlasResolution: 2048
    frameCount: 8
    replaceLODCullWithBillboard: 1
    isOverridingOriginalCutoff: 0
    cutoffOverride: -1
    billboardBrightness: 0.5
    billboardDistance: 0.8
    quadSize: 0
    yPivotOffset: 0
    albedoAtlasTexture: {fileID: 0}
    normalAtlasTexture: {fileID: 0}
    customBillboardInLODGroup: 0
    useCustomBillboard: 0
    customBillboardMesh: {fileID: 0}
    customBillboardMaterial: {fileID: 0}
    isBillboardShadowCasting: 0
    billboardFaceCamPos: 0
  isBillboardDisabled: 0
  useGeneratedBillboard: 0
  checkedForBillboardExtensions: 0
  autoUpdateTransformData: 0
  treeType: 0
  warningText: 
  prototypeIndex: 8
  detailRenderMode: 2
  usePrototypeMesh: 1
  prototypeTexture: {fileID: 0}
  useCustomMaterialForTextureDetail: 0
  textureDetailCustomMaterial: {fileID: 0}
  detailDensity: 1
  useCrossQuads: 0
  quadCount: 2
  isBillboard: 0
  billboardDistance: 0.9
  billboardDistanceDebug: 0
  billboardDistanceDebugColor: {r: 1, g: 0, b: 0, a: 1}
  billboardFaceCamPos: 0
  detailHealthyColor: {r: 0.48933098, g: 0.8235294, b: 0.4783737, a: 0}
  detailDryColor: {r: 0.55169326, g: 0.8088235, b: 0.5174092, a: 0}
  noiseSpread: 0.2
  ambientOcclusion: 0.5
  gradientPower: 0.3
  windWaveTintColor: {r: 0.5205121, g: 0.8161765, b: 0.49789146, a: 0}
  windIdleSway: 0.6
  windWavesOn: 1
  windWaveSize: 0.5
  windWaveTint: 0.5
  windWaveSway: 0.3
  detailScale: {x: 0.8, y: 1.2, z: 0.8, w: 1.2}
  useCustomHealthyDryNoiseTexture: 0
  healthyDryNoiseTexture: {fileID: 0}
--- !u!114 &114039740476140092
MonoBehaviour:
  m_ObjectHideFlags: 0
  m_CorrespondingSourceObject: {fileID: 0}
  m_PrefabInstance: {fileID: 0}
  m_PrefabAsset: {fileID: 0}
  m_GameObject: {fileID: 0}
  m_Enabled: 1
  m_EditorHideFlags: 0
  m_Script: {fileID: 11500000, guid: bdeaa1ff97134aec9c8aae1beccb5637, type: 3}
  m_Name: Boulder
  m_EditorClassIdentifier: 
  prefabObject: {fileID: 1967248734657734, guid: 5affb069d11bd234aacfe93c7e759ec2,
    type: 3}
  isShadowCasting: 1
  useCustomShadowDistance: 0
  shadowDistance: 0
  shadowLODMap:
  - 0
  - 4
  - 0
  - 0
  - 1
  - 5
  - 0
  - 0
  - 2
  - 6
  - 0
  - 0
  - 3
  - 7
  - 0
  - 0
  useOriginalShaderForShadow: 0
  cullShadows: 0
  minDistance: 0
  maxDistance: 250
  isFrustumCulling: 1
  isOcclusionCulling: 1
  frustumOffset: 0.2
  minCullingDistance: 0
  boundsOffset: {x: 0, y: 0, z: 0}
  isLODCrossFade: 0
  isLODCrossFadeAnimate: 1
  lodFadeTransitionWidth: 0.1
  lodBiasAdjustment: 1
  billboard:
    billboardQuality: 1
    atlasResolution: 2048
    frameCount: 8
    replaceLODCullWithBillboard: 1
    isOverridingOriginalCutoff: 0
    cutoffOverride: -1
    billboardBrightness: 0.5
    billboardDistance: 0.8
    quadSize: 0
    yPivotOffset: 0
    albedoAtlasTexture: {fileID: 0}
    normalAtlasTexture: {fileID: 0}
    customBillboardInLODGroup: 0
    useCustomBillboard: 0
    customBillboardMesh: {fileID: 0}
    customBillboardMaterial: {fileID: 0}
    isBillboardShadowCasting: 0
    billboardFaceCamPos: 0
  isBillboardDisabled: 0
  useGeneratedBillboard: 0
  checkedForBillboardExtensions: 0
  autoUpdateTransformData: 0
  treeType: 0
  warningText: 
  prototypeIndex: 18
  detailRenderMode: 1
  usePrototypeMesh: 1
  prototypeTexture: {fileID: 0}
  useCustomMaterialForTextureDetail: 0
  textureDetailCustomMaterial: {fileID: 0}
  detailDensity: 1
  useCrossQuads: 0
  quadCount: 2
  isBillboard: 0
  billboardDistance: 0.9
  billboardDistanceDebug: 0
  billboardDistanceDebugColor: {r: 1, g: 0, b: 0, a: 1}
  billboardFaceCamPos: 0
  detailHealthyColor: {r: 0.78676474, g: 0.78676474, b: 0.78676474, a: 1}
  detailDryColor: {r: 0.78676474, g: 0.78676474, b: 0.78676474, a: 1}
  noiseSpread: 0.2
  ambientOcclusion: 0.5
  gradientPower: 0.3
  windWaveTintColor: {r: 0.78676474, g: 0.78676474, b: 0.78676474, a: 1}
  windIdleSway: 0.6
  windWavesOn: 1
  windWaveSize: 0.5
  windWaveTint: 0.5
  windWaveSway: 0.3
  detailScale: {x: 0.1, y: 0.2, z: 0.1, w: 0.2}
  useCustomHealthyDryNoiseTexture: 0
  healthyDryNoiseTexture: {fileID: 0}
--- !u!114 &114041916395852018
MonoBehaviour:
  m_ObjectHideFlags: 0
  m_CorrespondingSourceObject: {fileID: 0}
  m_PrefabInstance: {fileID: 0}
  m_PrefabAsset: {fileID: 0}
  m_GameObject: {fileID: 0}
  m_Enabled: 1
  m_EditorHideFlags: 0
  m_Script: {fileID: 11500000, guid: bdeaa1ff97134aec9c8aae1beccb5637, type: 3}
  m_Name: veg_dandelion_01_scaled
  m_EditorClassIdentifier: 
  prefabObject: {fileID: 1689580781567890, guid: 7462a3a4646d99945a5d55ad3863cc33,
    type: 3}
  isShadowCasting: 1
  useCustomShadowDistance: 0
  shadowDistance: 0
  shadowLODMap:
  - 0
  - 4
  - 0
  - 0
  - 1
  - 5
  - 0
  - 0
  - 2
  - 6
  - 0
  - 0
  - 3
  - 7
  - 0
  - 0
  useOriginalShaderForShadow: 0
  cullShadows: 0
  minDistance: 0
  maxDistance: 250
  isFrustumCulling: 1
  isOcclusionCulling: 1
  frustumOffset: 0.2
  minCullingDistance: 0
  boundsOffset: {x: 0, y: 0, z: 0}
  isLODCrossFade: 0
  isLODCrossFadeAnimate: 1
  lodFadeTransitionWidth: 0.1
  lodBiasAdjustment: 1
  billboard:
    billboardQuality: 1
    atlasResolution: 2048
    frameCount: 8
    replaceLODCullWithBillboard: 1
    isOverridingOriginalCutoff: 0
    cutoffOverride: -1
    billboardBrightness: 0.5
    billboardDistance: 0.8
    quadSize: 0
    yPivotOffset: 0
    albedoAtlasTexture: {fileID: 0}
    normalAtlasTexture: {fileID: 0}
    customBillboardInLODGroup: 0
    useCustomBillboard: 0
    customBillboardMesh: {fileID: 0}
    customBillboardMaterial: {fileID: 0}
    isBillboardShadowCasting: 0
    billboardFaceCamPos: 0
  isBillboardDisabled: 0
  useGeneratedBillboard: 0
  checkedForBillboardExtensions: 0
  autoUpdateTransformData: 0
  treeType: 0
  warningText: 
  prototypeIndex: 12
  detailRenderMode: 2
  usePrototypeMesh: 1
  prototypeTexture: {fileID: 0}
  useCustomMaterialForTextureDetail: 0
  textureDetailCustomMaterial: {fileID: 0}
  detailDensity: 1
  useCrossQuads: 0
  quadCount: 2
  isBillboard: 0
  billboardDistance: 0.9
  billboardDistanceDebug: 0
  billboardDistanceDebugColor: {r: 1, g: 0, b: 0, a: 1}
  billboardFaceCamPos: 0
  detailHealthyColor: {r: 1, g: 1, b: 1, a: 1}
  detailDryColor: {r: 1, g: 1, b: 1, a: 1}
  noiseSpread: 0.2
  ambientOcclusion: 0.5
  gradientPower: 0.3
  windWaveTintColor: {r: 1, g: 1, b: 1, a: 1}
  windIdleSway: 0.6
  windWavesOn: 1
  windWaveSize: 0.5
  windWaveTint: 0.5
  windWaveSway: 0.3
  detailScale: {x: 1.6, y: 2.4, z: 1.6, w: 2.4}
  useCustomHealthyDryNoiseTexture: 0
  healthyDryNoiseTexture: {fileID: 0}
--- !u!114 &114053713596195264
MonoBehaviour:
  m_ObjectHideFlags: 0
  m_CorrespondingSourceObject: {fileID: 0}
  m_PrefabInstance: {fileID: 0}
  m_PrefabAsset: {fileID: 0}
  m_GameObject: {fileID: 0}
  m_Enabled: 1
  m_EditorHideFlags: 0
  m_Script: {fileID: 11500000, guid: bdeaa1ff97134aec9c8aae1beccb5637, type: 3}
  m_Name: Boulder
  m_EditorClassIdentifier: 
  prefabObject: {fileID: 1967248734657734, guid: 5affb069d11bd234aacfe93c7e759ec2,
    type: 3}
  isShadowCasting: 1
  useCustomShadowDistance: 0
  shadowDistance: 0
  shadowLODMap:
  - 0
  - 4
  - 0
  - 0
  - 1
  - 5
  - 0
  - 0
  - 2
  - 6
  - 0
  - 0
  - 3
  - 7
  - 0
  - 0
  useOriginalShaderForShadow: 0
  cullShadows: 0
  minDistance: 0
  maxDistance: 250
  isFrustumCulling: 1
  isOcclusionCulling: 1
  frustumOffset: 0.2
  minCullingDistance: 0
  boundsOffset: {x: 0, y: 0, z: 0}
  isLODCrossFade: 0
  isLODCrossFadeAnimate: 1
  lodFadeTransitionWidth: 0.1
  lodBiasAdjustment: 1
  billboard:
    billboardQuality: 1
    atlasResolution: 2048
    frameCount: 8
    replaceLODCullWithBillboard: 1
    isOverridingOriginalCutoff: 0
    cutoffOverride: -1
    billboardBrightness: 0.5
    billboardDistance: 0.8
    quadSize: 0
    yPivotOffset: 0
    albedoAtlasTexture: {fileID: 0}
    normalAtlasTexture: {fileID: 0}
    customBillboardInLODGroup: 0
    useCustomBillboard: 0
    customBillboardMesh: {fileID: 0}
    customBillboardMaterial: {fileID: 0}
    isBillboardShadowCasting: 0
    billboardFaceCamPos: 0
  isBillboardDisabled: 0
  useGeneratedBillboard: 0
  checkedForBillboardExtensions: 0
  autoUpdateTransformData: 0
  treeType: 0
  warningText: 
  prototypeIndex: 17
  detailRenderMode: 1
  usePrototypeMesh: 1
  prototypeTexture: {fileID: 0}
  useCustomMaterialForTextureDetail: 0
  textureDetailCustomMaterial: {fileID: 0}
  detailDensity: 1
  useCrossQuads: 0
  quadCount: 2
  isBillboard: 0
  billboardDistance: 0.9
  billboardDistanceDebug: 0
  billboardDistanceDebugColor: {r: 1, g: 0, b: 0, a: 1}
  billboardFaceCamPos: 0
  detailHealthyColor: {r: 0.78676474, g: 0.78676474, b: 0.78676474, a: 1}
  detailDryColor: {r: 0.78676474, g: 0.78676474, b: 0.78676474, a: 1}
  noiseSpread: 0.2
  ambientOcclusion: 0.5
  gradientPower: 0.3
  windWaveTintColor: {r: 0.78676474, g: 0.78676474, b: 0.78676474, a: 1}
  windIdleSway: 0.6
  windWavesOn: 1
  windWaveSize: 0.5
  windWaveTint: 0.5
  windWaveSway: 0.3
  detailScale: {x: 0.5, y: 1, z: 0.5, w: 1}
  useCustomHealthyDryNoiseTexture: 0
  healthyDryNoiseTexture: {fileID: 0}
--- !u!114 &114116602215010566
MonoBehaviour:
  m_ObjectHideFlags: 0
  m_CorrespondingSourceObject: {fileID: 0}
  m_PrefabInstance: {fileID: 0}
  m_PrefabAsset: {fileID: 0}
  m_GameObject: {fileID: 0}
  m_Enabled: 1
  m_EditorHideFlags: 0
  m_Script: {fileID: 11500000, guid: bdeaa1ff97134aec9c8aae1beccb5637, type: 3}
  m_Name: S_plant_02
  m_EditorClassIdentifier: 
  prefabObject: {fileID: 1421494265429266, guid: f79ec0bf44573944d8d0d026d4836d86,
    type: 3}
  isShadowCasting: 1
  useCustomShadowDistance: 0
  shadowDistance: 0
  shadowLODMap:
  - 0
  - 4
  - 0
  - 0
  - 1
  - 5
  - 0
  - 0
  - 2
  - 6
  - 0
  - 0
  - 3
  - 7
  - 0
  - 0
  useOriginalShaderForShadow: 0
  cullShadows: 0
  minDistance: 0
  maxDistance: 250
  isFrustumCulling: 1
  isOcclusionCulling: 1
  frustumOffset: 0.2
  minCullingDistance: 0
  boundsOffset: {x: 0, y: 0, z: 0}
  isLODCrossFade: 0
  isLODCrossFadeAnimate: 1
  lodFadeTransitionWidth: 0.1
  lodBiasAdjustment: 1
  billboard:
    billboardQuality: 1
    atlasResolution: 2048
    frameCount: 8
    replaceLODCullWithBillboard: 1
    isOverridingOriginalCutoff: 0
    cutoffOverride: -1
    billboardBrightness: 0.5
    billboardDistance: 0.8
    quadSize: 0
    yPivotOffset: 0
    albedoAtlasTexture: {fileID: 0}
    normalAtlasTexture: {fileID: 0}
    customBillboardInLODGroup: 0
    useCustomBillboard: 0
    customBillboardMesh: {fileID: 0}
    customBillboardMaterial: {fileID: 0}
    isBillboardShadowCasting: 0
    billboardFaceCamPos: 0
  isBillboardDisabled: 0
  useGeneratedBillboard: 0
  checkedForBillboardExtensions: 0
  autoUpdateTransformData: 0
  treeType: 0
  warningText: 
  prototypeIndex: 11
  detailRenderMode: 2
  usePrototypeMesh: 1
  prototypeTexture: {fileID: 0}
  useCustomMaterialForTextureDetail: 0
  textureDetailCustomMaterial: {fileID: 0}
  detailDensity: 1
  useCrossQuads: 0
  quadCount: 2
  isBillboard: 0
  billboardDistance: 0.9
  billboardDistanceDebug: 0
  billboardDistanceDebugColor: {r: 1, g: 0, b: 0, a: 1}
  billboardFaceCamPos: 0
  detailHealthyColor: {r: 0.5058824, g: 0.6117647, b: 1, a: 0}
  detailDryColor: {r: 0.47058824, g: 0.53333336, b: 0.6392157, a: 0}
  noiseSpread: 0.2
  ambientOcclusion: 0.5
  gradientPower: 0.3
  windWaveTintColor: {r: 0.4882353, g: 0.57254905, b: 0.81960785, a: 0}
  windIdleSway: 0.6
  windWavesOn: 1
  windWaveSize: 0.5
  windWaveTint: 0.5
  windWaveSway: 0.3
  detailScale: {x: 0.9, y: 1.3, z: 0.9, w: 1.3}
  useCustomHealthyDryNoiseTexture: 0
  healthyDryNoiseTexture: {fileID: 0}
--- !u!114 &114219321495525682
MonoBehaviour:
  m_ObjectHideFlags: 0
  m_CorrespondingSourceObject: {fileID: 0}
  m_PrefabInstance: {fileID: 0}
  m_PrefabAsset: {fileID: 0}
  m_GameObject: {fileID: 0}
  m_Enabled: 1
  m_EditorHideFlags: 0
  m_Script: {fileID: 11500000, guid: bdeaa1ff97134aec9c8aae1beccb5637, type: 3}
  m_Name: Small_Tree_02_Red
  m_EditorClassIdentifier: 
  prefabObject: {fileID: 1224587869125810, guid: 3e81bb96a1a4a874888fac9fd20b27c0,
    type: 3}
  isShadowCasting: 1
  useCustomShadowDistance: 0
  shadowDistance: 0
  shadowLODMap:
  - 0
  - 4
  - 0
  - 0
  - 1
  - 5
  - 0
  - 0
  - 2
  - 6
  - 0
  - 0
  - 3
  - 7
  - 0
  - 0
  useOriginalShaderForShadow: 0
  cullShadows: 0
  minDistance: 0
  maxDistance: 250
  isFrustumCulling: 1
  isOcclusionCulling: 1
  frustumOffset: 0.2
  minCullingDistance: 0
  boundsOffset: {x: 0, y: 0, z: 0}
  isLODCrossFade: 0
  isLODCrossFadeAnimate: 1
  lodFadeTransitionWidth: 0.1
  lodBiasAdjustment: 1
  billboard:
    billboardQuality: 1
    atlasResolution: 2048
    frameCount: 8
    replaceLODCullWithBillboard: 1
    isOverridingOriginalCutoff: 0
    cutoffOverride: -1
    billboardBrightness: 0.5
    billboardDistance: 0.8
    quadSize: 0
    yPivotOffset: 0
    albedoAtlasTexture: {fileID: 0}
    normalAtlasTexture: {fileID: 0}
    customBillboardInLODGroup: 0
    useCustomBillboard: 0
    customBillboardMesh: {fileID: 0}
    customBillboardMaterial: {fileID: 0}
    isBillboardShadowCasting: 0
    billboardFaceCamPos: 0
  isBillboardDisabled: 0
  useGeneratedBillboard: 0
  checkedForBillboardExtensions: 0
  autoUpdateTransformData: 0
  treeType: 0
  warningText: 
  prototypeIndex: 22
  detailRenderMode: 1
  usePrototypeMesh: 1
  prototypeTexture: {fileID: 0}
  useCustomMaterialForTextureDetail: 0
  textureDetailCustomMaterial: {fileID: 0}
  detailDensity: 1
  useCrossQuads: 0
  quadCount: 2
  isBillboard: 0
  billboardDistance: 0.9
  billboardDistanceDebug: 0
  billboardDistanceDebugColor: {r: 1, g: 0, b: 0, a: 1}
  billboardFaceCamPos: 0
  detailHealthyColor: {r: 0.3803921, g: 0.078431346, b: 0.078431346, a: 1}
  detailDryColor: {r: 0.53676474, g: 0.35521197, b: 0.35521197, a: 1}
  noiseSpread: 0.1
  ambientOcclusion: 0.5
  gradientPower: 0.3
  windWaveTintColor: {r: 0.4585784, g: 0.21682166, b: 0.21682166, a: 1}
  windIdleSway: 0.6
  windWavesOn: 1
  windWaveSize: 0.5
  windWaveTint: 0.5
  windWaveSway: 0.3
  detailScale: {x: 1, y: 2, z: 1, w: 2}
  useCustomHealthyDryNoiseTexture: 0
  healthyDryNoiseTexture: {fileID: 0}
--- !u!114 &114258769517331224
MonoBehaviour:
  m_ObjectHideFlags: 0
  m_CorrespondingSourceObject: {fileID: 0}
  m_PrefabInstance: {fileID: 0}
  m_PrefabAsset: {fileID: 0}
  m_GameObject: {fileID: 0}
  m_Enabled: 1
  m_EditorHideFlags: 0
  m_Script: {fileID: 11500000, guid: bdeaa1ff97134aec9c8aae1beccb5637, type: 3}
  m_Name: Fern_02_LOD0
  m_EditorClassIdentifier: 
  prefabObject: {fileID: 1830195976470866, guid: e6d377e610e412c40b25c2827de4814f,
    type: 3}
  isShadowCasting: 1
  useCustomShadowDistance: 0
  shadowDistance: 0
  shadowLODMap:
  - 0
  - 4
  - 0
  - 0
  - 1
  - 5
  - 0
  - 0
  - 2
  - 6
  - 0
  - 0
  - 3
  - 7
  - 0
  - 0
  useOriginalShaderForShadow: 0
  cullShadows: 0
  minDistance: 0
  maxDistance: 250
  isFrustumCulling: 1
  isOcclusionCulling: 1
  frustumOffset: 0.2
  minCullingDistance: 0
  boundsOffset: {x: 0, y: 0, z: 0}
  isLODCrossFade: 0
  isLODCrossFadeAnimate: 1
  lodFadeTransitionWidth: 0.1
  lodBiasAdjustment: 1
  billboard:
    billboardQuality: 1
    atlasResolution: 2048
    frameCount: 8
    replaceLODCullWithBillboard: 1
    isOverridingOriginalCutoff: 0
    cutoffOverride: -1
    billboardBrightness: 0.5
    billboardDistance: 0.8
    quadSize: 0
    yPivotOffset: 0
    albedoAtlasTexture: {fileID: 0}
    normalAtlasTexture: {fileID: 0}
    customBillboardInLODGroup: 0
    useCustomBillboard: 0
    customBillboardMesh: {fileID: 0}
    customBillboardMaterial: {fileID: 0}
    isBillboardShadowCasting: 0
    billboardFaceCamPos: 0
  isBillboardDisabled: 0
  useGeneratedBillboard: 0
  checkedForBillboardExtensions: 0
  autoUpdateTransformData: 0
  treeType: 0
  warningText: 
  prototypeIndex: 20
  detailRenderMode: 1
  usePrototypeMesh: 1
  prototypeTexture: {fileID: 0}
  useCustomMaterialForTextureDetail: 0
  textureDetailCustomMaterial: {fileID: 0}
  detailDensity: 1
  useCrossQuads: 0
  quadCount: 2
  isBillboard: 0
  billboardDistance: 0.9
  billboardDistanceDebug: 0
  billboardDistanceDebugColor: {r: 1, g: 0, b: 0, a: 1}
  billboardFaceCamPos: 0
  detailHealthyColor: {r: 0.8455882, g: 0.6431959, b: 0.111916095, a: 1}
  detailDryColor: {r: 0.42046928, g: 0.5661765, b: 0.33304498, a: 1}
  noiseSpread: 0.2
  ambientOcclusion: 0.5
  gradientPower: 0.3
  windWaveTintColor: {r: 0.63302875, g: 0.6046862, b: 0.22248054, a: 1}
  windIdleSway: 0.6
  windWavesOn: 1
  windWaveSize: 0.5
  windWaveTint: 0.5
  windWaveSway: 0.3
  detailScale: {x: 0.8, y: 1.1, z: 0.8, w: 1.1}
  useCustomHealthyDryNoiseTexture: 0
  healthyDryNoiseTexture: {fileID: 0}
--- !u!114 &114272015332441542
MonoBehaviour:
  m_ObjectHideFlags: 0
  m_CorrespondingSourceObject: {fileID: 0}
  m_PrefabInstance: {fileID: 0}
  m_PrefabAsset: {fileID: 0}
  m_GameObject: {fileID: 0}
  m_Enabled: 1
  m_EditorHideFlags: 0
  m_Script: {fileID: 11500000, guid: bdeaa1ff97134aec9c8aae1beccb5637, type: 3}
  m_Name: RoseyFlower
  m_EditorClassIdentifier: 
  prefabObject: {fileID: 1862515693711944, guid: f38a0d94b31fc134fb5493c6e7bd084d,
    type: 3}
  isShadowCasting: 1
  useCustomShadowDistance: 0
  shadowDistance: 0
  shadowLODMap:
  - 0
  - 4
  - 0
  - 0
  - 1
  - 5
  - 0
  - 0
  - 2
  - 6
  - 0
  - 0
  - 3
  - 7
  - 0
  - 0
  useOriginalShaderForShadow: 0
  cullShadows: 0
  minDistance: 0
  maxDistance: 250
  isFrustumCulling: 1
  isOcclusionCulling: 1
  frustumOffset: 0.2
  minCullingDistance: 0
  boundsOffset: {x: 0, y: 0, z: 0}
  isLODCrossFade: 0
  isLODCrossFadeAnimate: 1
  lodFadeTransitionWidth: 0.1
  lodBiasAdjustment: 1
  billboard:
    billboardQuality: 1
    atlasResolution: 2048
    frameCount: 8
    replaceLODCullWithBillboard: 1
    isOverridingOriginalCutoff: 0
    cutoffOverride: -1
    billboardBrightness: 0.5
    billboardDistance: 0.8
    quadSize: 0
    yPivotOffset: 0
    albedoAtlasTexture: {fileID: 0}
    normalAtlasTexture: {fileID: 0}
    customBillboardInLODGroup: 0
    useCustomBillboard: 0
    customBillboardMesh: {fileID: 0}
    customBillboardMaterial: {fileID: 0}
    isBillboardShadowCasting: 0
    billboardFaceCamPos: 0
  isBillboardDisabled: 0
  useGeneratedBillboard: 0
  checkedForBillboardExtensions: 0
  autoUpdateTransformData: 0
  treeType: 0
  warningText: 
  prototypeIndex: 21
  detailRenderMode: 1
  usePrototypeMesh: 1
  prototypeTexture: {fileID: 0}
  useCustomMaterialForTextureDetail: 0
  textureDetailCustomMaterial: {fileID: 0}
  detailDensity: 1
  useCrossQuads: 0
  quadCount: 2
  isBillboard: 0
  billboardDistance: 0.9
  billboardDistanceDebug: 0
  billboardDistanceDebugColor: {r: 1, g: 0, b: 0, a: 1}
  billboardFaceCamPos: 0
  detailHealthyColor: {r: 1, g: 1, b: 1, a: 1}
  detailDryColor: {r: 1, g: 1, b: 1, a: 1}
  noiseSpread: 0.2
  ambientOcclusion: 0.5
  gradientPower: 0.3
  windWaveTintColor: {r: 1, g: 1, b: 1, a: 1}
  windIdleSway: 0.6
  windWavesOn: 1
  windWaveSize: 0.5
  windWaveTint: 0.5
  windWaveSway: 0.3
  detailScale: {x: 0.9, y: 1, z: 0.9, w: 1.2}
  useCustomHealthyDryNoiseTexture: 0
  healthyDryNoiseTexture: {fileID: 0}
--- !u!114 &114275459416460146
MonoBehaviour:
  m_ObjectHideFlags: 0
  m_CorrespondingSourceObject: {fileID: 0}
  m_PrefabInstance: {fileID: 0}
  m_PrefabAsset: {fileID: 0}
  m_GameObject: {fileID: 0}
  m_Enabled: 1
  m_EditorHideFlags: 0
  m_Script: {fileID: 11500000, guid: bdeaa1ff97134aec9c8aae1beccb5637, type: 3}
  m_Name: Small_Tree_01
  m_EditorClassIdentifier: 
  prefabObject: {fileID: 1685883221143000, guid: c2ed12d603a281a4f88231718ed0e9d5,
    type: 3}
  isShadowCasting: 1
  useCustomShadowDistance: 0
  shadowDistance: 0
  shadowLODMap:
  - 0
  - 4
  - 0
  - 0
  - 1
  - 5
  - 0
  - 0
  - 2
  - 6
  - 0
  - 0
  - 3
  - 7
  - 0
  - 0
  useOriginalShaderForShadow: 0
  cullShadows: 0
  minDistance: 0
  maxDistance: 250
  isFrustumCulling: 1
  isOcclusionCulling: 1
  frustumOffset: 0.2
  minCullingDistance: 0
  boundsOffset: {x: 0, y: 0, z: 0}
  isLODCrossFade: 0
  isLODCrossFadeAnimate: 1
  lodFadeTransitionWidth: 0.1
  lodBiasAdjustment: 1
  billboard:
    billboardQuality: 1
    atlasResolution: 2048
    frameCount: 8
    replaceLODCullWithBillboard: 1
    isOverridingOriginalCutoff: 0
    cutoffOverride: -1
    billboardBrightness: 0.5
    billboardDistance: 0.8
    quadSize: 0
    yPivotOffset: 0
    albedoAtlasTexture: {fileID: 0}
    normalAtlasTexture: {fileID: 0}
    customBillboardInLODGroup: 0
    useCustomBillboard: 0
    customBillboardMesh: {fileID: 0}
    customBillboardMaterial: {fileID: 0}
    isBillboardShadowCasting: 0
    billboardFaceCamPos: 0
  isBillboardDisabled: 0
  useGeneratedBillboard: 0
  checkedForBillboardExtensions: 0
  autoUpdateTransformData: 0
  treeType: 0
  warningText: 
  prototypeIndex: 4
  detailRenderMode: 2
  usePrototypeMesh: 1
  prototypeTexture: {fileID: 0}
  useCustomMaterialForTextureDetail: 0
  textureDetailCustomMaterial: {fileID: 0}
  detailDensity: 1
  useCrossQuads: 0
  quadCount: 2
  isBillboard: 0
  billboardDistance: 0.9
  billboardDistanceDebug: 0
  billboardDistanceDebugColor: {r: 1, g: 0, b: 0, a: 1}
  billboardFaceCamPos: 0
  detailHealthyColor: {r: 0.63529414, g: 1, b: 0.34509805, a: 1}
  detailDryColor: {r: 0.5661764, g: 0.5661764, b: 0.5661764, a: 1}
  noiseSpread: 0.2
  ambientOcclusion: 0.5
  gradientPower: 0.3
  windWaveTintColor: {r: 0.6007353, g: 0.7830882, b: 0.45563722, a: 1}
  windIdleSway: 0.6
  windWavesOn: 1
  windWaveSize: 0.5
  windWaveTint: 0.5
  windWaveSway: 0.3
  detailScale: {x: 0.8, y: 1.2, z: 0.8, w: 1.2}
  useCustomHealthyDryNoiseTexture: 0
  healthyDryNoiseTexture: {fileID: 0}
--- !u!114 &114294122946763466
MonoBehaviour:
  m_ObjectHideFlags: 0
  m_CorrespondingSourceObject: {fileID: 0}
  m_PrefabInstance: {fileID: 0}
  m_PrefabAsset: {fileID: 0}
  m_GameObject: {fileID: 0}
  m_Enabled: 1
  m_EditorHideFlags: 0
  m_Script: {fileID: 11500000, guid: bdeaa1ff97134aec9c8aae1beccb5637, type: 3}
  m_Name: veg_grass_01_d_3_5602
  m_EditorClassIdentifier: 
  prefabObject: {fileID: 0}
  isShadowCasting: 1
  useCustomShadowDistance: 0
  shadowDistance: 0
  shadowLODMap: []
  useOriginalShaderForShadow: 0
  cullShadows: 0
  minDistance: 0
  maxDistance: 500
  isFrustumCulling: 1
  isOcclusionCulling: 1
  frustumOffset: 0.2
  minCullingDistance: 0
  boundsOffset: {x: 0, y: 0, z: 0}
  isLODCrossFade: 0
  isLODCrossFadeAnimate: 1
  lodFadeTransitionWidth: 0.1
  lodBiasAdjustment: 1
  billboard:
    billboardQuality: 1
    atlasResolution: 2048
    frameCount: 8
    replaceLODCullWithBillboard: 1
    isOverridingOriginalCutoff: 0
    cutoffOverride: -1
    billboardBrightness: 0.5
    billboardDistance: 0.8
    quadSize: 0
    yPivotOffset: 0
    albedoAtlasTexture: {fileID: 0}
    normalAtlasTexture: {fileID: 0}
    customBillboardInLODGroup: 0
    useCustomBillboard: 0
    customBillboardMesh: {fileID: 0}
    customBillboardMaterial: {fileID: 0}
    isBillboardShadowCasting: 0
    billboardFaceCamPos: 0
  isBillboardDisabled: 0
  useGeneratedBillboard: 0
  checkedForBillboardExtensions: 0
  autoUpdateTransformData: 0
  treeType: 0
  warningText: 
  prototypeIndex: 3
  detailRenderMode: 2
  usePrototypeMesh: 0
  prototypeTexture: {fileID: 2800000, guid: 335d3a817e74e8e4f8d623c1efe30b2e, type: 3}
  useCustomMaterialForTextureDetail: 0
  textureDetailCustomMaterial: {fileID: 0}
  detailDensity: 1
  useCrossQuads: 1
  quadCount: 4
  isBillboard: 0
  billboardDistance: 0.9
  billboardDistanceDebug: 0
  billboardDistanceDebugColor: {r: 1, g: 0, b: 0, a: 1}
  billboardFaceCamPos: 0
  detailHealthyColor: {r: 0.1764706, g: 0.7882353, b: 0.6666667, a: 1}
  detailDryColor: {r: 0.7647059, g: 0.9647059, b: 0.8745098, a: 0}
  noiseSpread: 0.2
  ambientOcclusion: 0.5
  gradientPower: 0.3
  windWaveTintColor: {r: 0.47058824, g: 0.87647057, b: 0.7705883, a: 0.5}
  windIdleSway: 0.6
  windWavesOn: 1
  windWaveSize: 0.5
  windWaveTint: 0.5
  windWaveSway: 0.3
  detailScale: {x: 1, y: 1, z: 1, w: 1}
  useCustomHealthyDryNoiseTexture: 0
  healthyDryNoiseTexture: {fileID: 0}
--- !u!114 &114300106898881894
MonoBehaviour:
  m_ObjectHideFlags: 0
  m_CorrespondingSourceObject: {fileID: 0}
  m_PrefabInstance: {fileID: 0}
  m_PrefabAsset: {fileID: 0}
  m_GameObject: {fileID: 0}
  m_Enabled: 1
  m_EditorHideFlags: 0
  m_Script: {fileID: 11500000, guid: bdeaa1ff97134aec9c8aae1beccb5637, type: 3}
  m_Name: StandardGrass_DiffuseMap_1_8620
  m_EditorClassIdentifier: 
  prefabObject: {fileID: 0}
  isShadowCasting: 1
  useCustomShadowDistance: 0
  shadowDistance: 0
  shadowLODMap: []
  useOriginalShaderForShadow: 0
  cullShadows: 0
  minDistance: 0
  maxDistance: 500
  isFrustumCulling: 1
  isOcclusionCulling: 1
  frustumOffset: 0.2
  minCullingDistance: 0
  boundsOffset: {x: 0, y: 0, z: 0}
  isLODCrossFade: 0
  isLODCrossFadeAnimate: 1
  lodFadeTransitionWidth: 0.1
  lodBiasAdjustment: 1
  billboard:
    billboardQuality: 1
    atlasResolution: 2048
    frameCount: 8
    replaceLODCullWithBillboard: 1
    isOverridingOriginalCutoff: 0
    cutoffOverride: -1
    billboardBrightness: 0.5
    billboardDistance: 0.8
    quadSize: 0
    yPivotOffset: 0
    albedoAtlasTexture: {fileID: 0}
    normalAtlasTexture: {fileID: 0}
    customBillboardInLODGroup: 0
    useCustomBillboard: 0
    customBillboardMesh: {fileID: 0}
    customBillboardMaterial: {fileID: 0}
    isBillboardShadowCasting: 0
    billboardFaceCamPos: 0
  isBillboardDisabled: 0
  useGeneratedBillboard: 0
  checkedForBillboardExtensions: 0
  autoUpdateTransformData: 0
  treeType: 0
  warningText: 
  prototypeIndex: 1
  detailRenderMode: 0
  usePrototypeMesh: 0
  prototypeTexture: {fileID: 2800000, guid: c863f4399182e154298db8a3f5bb95fb, type: 3}
  useCustomMaterialForTextureDetail: 0
  textureDetailCustomMaterial: {fileID: 0}
  detailDensity: 1
  useCrossQuads: 1
  quadCount: 4
  isBillboard: 0
  billboardDistance: 0.9
  billboardDistanceDebug: 0
  billboardDistanceDebugColor: {r: 1, g: 0, b: 0, a: 1}
  billboardFaceCamPos: 0
  detailHealthyColor: {r: 0.3001064, g: 0.6838235, b: 0, a: 1}
  detailDryColor: {r: 0.232, g: 0.5, b: 0, a: 1}
  noiseSpread: 0.1
  ambientOcclusion: 0.5
  gradientPower: 0.3
  windWaveTintColor: {r: 0.2660532, g: 0.5919118, b: 0, a: 1}
  windIdleSway: 0.6
  windWavesOn: 1
  windWaveSize: 0.5
  windWaveTint: 0.5
  windWaveSway: 0.3
  detailScale: {x: 0.8, y: 1.7, z: 0.8, w: 1.7}
  useCustomHealthyDryNoiseTexture: 0
  healthyDryNoiseTexture: {fileID: 0}
--- !u!114 &114333267506202642
MonoBehaviour:
  m_ObjectHideFlags: 0
  m_CorrespondingSourceObject: {fileID: 0}
  m_PrefabInstance: {fileID: 0}
  m_PrefabAsset: {fileID: 0}
  m_GameObject: {fileID: 0}
  m_Enabled: 1
  m_EditorHideFlags: 0
  m_Script: {fileID: 11500000, guid: bdeaa1ff97134aec9c8aae1beccb5637, type: 3}
  m_Name: veg_clovers_noflower_scaled
  m_EditorClassIdentifier: 
  prefabObject: {fileID: 1816554410610498, guid: db8c1ffa8224c7c4bbfcbcf2ba6fd56b,
    type: 3}
  isShadowCasting: 1
  useCustomShadowDistance: 0
  shadowDistance: 0
  shadowLODMap:
  - 0
  - 4
  - 0
  - 0
  - 1
  - 5
  - 0
  - 0
  - 2
  - 6
  - 0
  - 0
  - 3
  - 7
  - 0
  - 0
  useOriginalShaderForShadow: 0
  cullShadows: 0
  minDistance: 0
  maxDistance: 250
  isFrustumCulling: 1
  isOcclusionCulling: 1
  frustumOffset: 0.2
  minCullingDistance: 0
  boundsOffset: {x: 0, y: 0, z: 0}
  isLODCrossFade: 0
  isLODCrossFadeAnimate: 1
  lodFadeTransitionWidth: 0.1
  lodBiasAdjustment: 1
  billboard:
    billboardQuality: 1
    atlasResolution: 2048
    frameCount: 8
    replaceLODCullWithBillboard: 1
    isOverridingOriginalCutoff: 0
    cutoffOverride: -1
    billboardBrightness: 0.5
    billboardDistance: 0.8
    quadSize: 0
    yPivotOffset: 0
    albedoAtlasTexture: {fileID: 0}
    normalAtlasTexture: {fileID: 0}
    customBillboardInLODGroup: 0
    useCustomBillboard: 0
    customBillboardMesh: {fileID: 0}
    customBillboardMaterial: {fileID: 0}
    isBillboardShadowCasting: 0
    billboardFaceCamPos: 0
  isBillboardDisabled: 0
  useGeneratedBillboard: 0
  checkedForBillboardExtensions: 0
  autoUpdateTransformData: 0
  treeType: 0
  warningText: 
  prototypeIndex: 15
  detailRenderMode: 2
  usePrototypeMesh: 1
  prototypeTexture: {fileID: 0}
  useCustomMaterialForTextureDetail: 0
  textureDetailCustomMaterial: {fileID: 0}
  detailDensity: 1
  useCrossQuads: 0
  quadCount: 2
  isBillboard: 0
  billboardDistance: 0.9
  billboardDistanceDebug: 0
  billboardDistanceDebugColor: {r: 1, g: 0, b: 0, a: 1}
  billboardFaceCamPos: 0
  detailHealthyColor: {r: 1, g: 1, b: 1, a: 1}
  detailDryColor: {r: 1, g: 1, b: 1, a: 1}
  noiseSpread: 0.2
  ambientOcclusion: 0.5
  gradientPower: 0.3
  windWaveTintColor: {r: 1, g: 1, b: 1, a: 1}
  windIdleSway: 0.6
  windWavesOn: 1
  windWaveSize: 0.5
  windWaveTint: 0.5
  windWaveSway: 0.3
  detailScale: {x: 0.9, y: 1.4, z: 0.9, w: 1.4}
  useCustomHealthyDryNoiseTexture: 0
  healthyDryNoiseTexture: {fileID: 0}
--- !u!114 &114417776445893294
MonoBehaviour:
  m_ObjectHideFlags: 0
  m_CorrespondingSourceObject: {fileID: 0}
  m_PrefabInstance: {fileID: 0}
  m_PrefabAsset: {fileID: 0}
  m_GameObject: {fileID: 0}
  m_Enabled: 1
  m_EditorHideFlags: 0
  m_Script: {fileID: 11500000, guid: bdeaa1ff97134aec9c8aae1beccb5637, type: 3}
  m_Name: veg_grass_01_d_2_5602
  m_EditorClassIdentifier: 
  prefabObject: {fileID: 0}
  isShadowCasting: 1
  useCustomShadowDistance: 0
  shadowDistance: 0
  shadowLODMap: []
  useOriginalShaderForShadow: 0
  cullShadows: 0
  minDistance: 0
  maxDistance: 500
  isFrustumCulling: 1
  isOcclusionCulling: 1
  frustumOffset: 0.2
  minCullingDistance: 0
  boundsOffset: {x: 0, y: 0, z: 0}
  isLODCrossFade: 0
  isLODCrossFadeAnimate: 1
  lodFadeTransitionWidth: 0.1
  lodBiasAdjustment: 1
  billboard:
    billboardQuality: 1
    atlasResolution: 2048
    frameCount: 8
    replaceLODCullWithBillboard: 1
    isOverridingOriginalCutoff: 0
    cutoffOverride: -1
    billboardBrightness: 0.5
    billboardDistance: 0.8
    quadSize: 0
    yPivotOffset: 0
    albedoAtlasTexture: {fileID: 0}
    normalAtlasTexture: {fileID: 0}
    customBillboardInLODGroup: 0
    useCustomBillboard: 0
    customBillboardMesh: {fileID: 0}
    customBillboardMaterial: {fileID: 0}
    isBillboardShadowCasting: 0
    billboardFaceCamPos: 0
  isBillboardDisabled: 0
  useGeneratedBillboard: 0
  checkedForBillboardExtensions: 0
  autoUpdateTransformData: 0
  treeType: 0
  warningText: 
  prototypeIndex: 2
  detailRenderMode: 2
  usePrototypeMesh: 0
  prototypeTexture: {fileID: 2800000, guid: 335d3a817e74e8e4f8d623c1efe30b2e, type: 3}
  useCustomMaterialForTextureDetail: 0
  textureDetailCustomMaterial: {fileID: 0}
  detailDensity: 1
  useCrossQuads: 1
  quadCount: 4
  isBillboard: 0
  billboardDistance: 0.9
  billboardDistanceDebug: 0
  billboardDistanceDebugColor: {r: 1, g: 0, b: 0, a: 1}
  billboardFaceCamPos: 0
  detailHealthyColor: {r: 1, g: 0.3627789, b: 0.102941155, a: 0}
  detailDryColor: {r: 0.9044118, g: 0.7503132, b: 0.106401384, a: 0}
  noiseSpread: 100
  ambientOcclusion: 0.5
  gradientPower: 0.3
  windWaveTintColor: {r: 0.9522059, g: 0.5565461, b: 0.10467127, a: 0}
  windIdleSway: 0.6
  windWavesOn: 1
  windWaveSize: 0.5
  windWaveTint: 0.5
  windWaveSway: 0.3
  detailScale: {x: 1, y: 1, z: 1, w: 1}
  useCustomHealthyDryNoiseTexture: 0
  healthyDryNoiseTexture: {fileID: 0}
--- !u!114 &114543571735497868
MonoBehaviour:
  m_ObjectHideFlags: 0
  m_CorrespondingSourceObject: {fileID: 0}
  m_PrefabInstance: {fileID: 0}
  m_PrefabAsset: {fileID: 0}
  m_GameObject: {fileID: 0}
  m_Enabled: 1
  m_EditorHideFlags: 0
  m_Script: {fileID: 11500000, guid: bdeaa1ff97134aec9c8aae1beccb5637, type: 3}
  m_Name: M_plant_04
  m_EditorClassIdentifier: 
  prefabObject: {fileID: 1267501320320198, guid: 291f739f1108db84e8220de8b44c8a20,
    type: 3}
  isShadowCasting: 1
  useCustomShadowDistance: 0
  shadowDistance: 0
  shadowLODMap:
  - 0
  - 4
  - 0
  - 0
  - 1
  - 5
  - 0
  - 0
  - 2
  - 6
  - 0
  - 0
  - 3
  - 7
  - 0
  - 0
  useOriginalShaderForShadow: 0
  cullShadows: 0
  minDistance: 0
  maxDistance: 250
  isFrustumCulling: 1
  isOcclusionCulling: 1
  frustumOffset: 0.2
  minCullingDistance: 0
  boundsOffset: {x: 0, y: 0, z: 0}
  isLODCrossFade: 0
  isLODCrossFadeAnimate: 1
  lodFadeTransitionWidth: 0.1
  lodBiasAdjustment: 1
  billboard:
    billboardQuality: 1
    atlasResolution: 2048
    frameCount: 8
    replaceLODCullWithBillboard: 1
    isOverridingOriginalCutoff: 0
    cutoffOverride: -1
    billboardBrightness: 0.5
    billboardDistance: 0.8
    quadSize: 0
    yPivotOffset: 0
    albedoAtlasTexture: {fileID: 0}
    normalAtlasTexture: {fileID: 0}
    customBillboardInLODGroup: 0
    useCustomBillboard: 0
    customBillboardMesh: {fileID: 0}
    customBillboardMaterial: {fileID: 0}
    isBillboardShadowCasting: 0
    billboardFaceCamPos: 0
  isBillboardDisabled: 0
  useGeneratedBillboard: 0
  checkedForBillboardExtensions: 0
  autoUpdateTransformData: 0
  treeType: 0
  warningText: 
  prototypeIndex: 9
  detailRenderMode: 2
  usePrototypeMesh: 1
  prototypeTexture: {fileID: 0}
  useCustomMaterialForTextureDetail: 0
  textureDetailCustomMaterial: {fileID: 0}
  detailDensity: 1
  useCrossQuads: 0
  quadCount: 2
  isBillboard: 0
  billboardDistance: 0.9
  billboardDistanceDebug: 0
  billboardDistanceDebugColor: {r: 1, g: 0, b: 0, a: 1}
  billboardFaceCamPos: 0
  detailHealthyColor: {r: 0.9320486, g: 1, b: 0.50735295, a: 0}
  detailDryColor: {r: 1, g: 1, b: 1, a: 0}
  noiseSpread: 0.2
  ambientOcclusion: 0.5
  gradientPower: 0.3
  windWaveTintColor: {r: 0.9660243, g: 1, b: 0.7536765, a: 0}
  windIdleSway: 0.6
  windWavesOn: 1
  windWaveSize: 0.5
  windWaveTint: 0.5
  windWaveSway: 0.3
  detailScale: {x: 0.8, y: 1.2, z: 0.8, w: 1.2}
  useCustomHealthyDryNoiseTexture: 0
  healthyDryNoiseTexture: {fileID: 0}
--- !u!114 &114571839218537238
MonoBehaviour:
  m_ObjectHideFlags: 0
  m_CorrespondingSourceObject: {fileID: 0}
  m_PrefabInstance: {fileID: 0}
  m_PrefabAsset: {fileID: 0}
  m_GameObject: {fileID: 0}
  m_Enabled: 1
  m_EditorHideFlags: 0
  m_Script: {fileID: 11500000, guid: bdeaa1ff97134aec9c8aae1beccb5637, type: 3}
  m_Name: Fern_01_LOD0
  m_EditorClassIdentifier: 
  prefabObject: {fileID: 1559653138796732, guid: 69b0a38b87fa5fe4fb28166b97efb4ab,
    type: 3}
  isShadowCasting: 1
  useCustomShadowDistance: 0
  shadowDistance: 0
  shadowLODMap:
  - 0
  - 4
  - 0
  - 0
  - 1
  - 5
  - 0
  - 0
  - 2
  - 6
  - 0
  - 0
  - 3
  - 7
  - 0
  - 0
  useOriginalShaderForShadow: 0
  cullShadows: 0
  minDistance: 0
  maxDistance: 250
  isFrustumCulling: 1
  isOcclusionCulling: 1
  frustumOffset: 0.2
  minCullingDistance: 0
  boundsOffset: {x: 0, y: 0, z: 0}
  isLODCrossFade: 0
  isLODCrossFadeAnimate: 1
  lodFadeTransitionWidth: 0.1
  lodBiasAdjustment: 1
  billboard:
    billboardQuality: 1
    atlasResolution: 2048
    frameCount: 8
    replaceLODCullWithBillboard: 1
    isOverridingOriginalCutoff: 0
    cutoffOverride: -1
    billboardBrightness: 0.5
    billboardDistance: 0.8
    quadSize: 0
    yPivotOffset: 0
    albedoAtlasTexture: {fileID: 0}
    normalAtlasTexture: {fileID: 0}
    customBillboardInLODGroup: 0
    useCustomBillboard: 0
    customBillboardMesh: {fileID: 0}
    customBillboardMaterial: {fileID: 0}
    isBillboardShadowCasting: 0
    billboardFaceCamPos: 0
  isBillboardDisabled: 0
  useGeneratedBillboard: 0
  checkedForBillboardExtensions: 0
  autoUpdateTransformData: 0
  treeType: 0
  warningText: 
  prototypeIndex: 19
  detailRenderMode: 1
  usePrototypeMesh: 1
  prototypeTexture: {fileID: 0}
  useCustomMaterialForTextureDetail: 0
  textureDetailCustomMaterial: {fileID: 0}
  detailDensity: 1
  useCrossQuads: 0
  quadCount: 2
  isBillboard: 0
  billboardDistance: 0.9
  billboardDistanceDebug: 0
  billboardDistanceDebugColor: {r: 1, g: 0, b: 0, a: 1}
  billboardFaceCamPos: 0
  detailHealthyColor: {r: 0.9632353, g: 0.9075514, b: 0.15581745, a: 1}
  detailDryColor: {r: 0.21127541, g: 0.3602941, b: 0.12186419, a: 1}
  noiseSpread: 0.2
  ambientOcclusion: 0.5
  gradientPower: 0.3
  windWaveTintColor: {r: 0.58725536, g: 0.63392276, b: 0.13884082, a: 1}
  windIdleSway: 0.6
  windWavesOn: 1
  windWaveSize: 0.5
  windWaveTint: 0.5
  windWaveSway: 0.3
  detailScale: {x: 0.9, y: 1.2, z: 0.9, w: 1.2}
  useCustomHealthyDryNoiseTexture: 0
  healthyDryNoiseTexture: {fileID: 0}
--- !u!114 &114572118059967242
MonoBehaviour:
  m_ObjectHideFlags: 0
  m_CorrespondingSourceObject: {fileID: 0}
  m_PrefabInstance: {fileID: 0}
  m_PrefabAsset: {fileID: 0}
  m_GameObject: {fileID: 0}
  m_Enabled: 1
  m_EditorHideFlags: 0
  m_Script: {fileID: 11500000, guid: bdeaa1ff97134aec9c8aae1beccb5637, type: 3}
  m_Name: Small_Tree_02
  m_EditorClassIdentifier: 
  prefabObject: {fileID: 1642757198140562, guid: 7be38d07b965f8c42b37f4c6fb1c82f6,
    type: 3}
  isShadowCasting: 1
  useCustomShadowDistance: 0
  shadowDistance: 0
  shadowLODMap:
  - 0
  - 4
  - 0
  - 0
  - 1
  - 5
  - 0
  - 0
  - 2
  - 6
  - 0
  - 0
  - 3
  - 7
  - 0
  - 0
  useOriginalShaderForShadow: 0
  cullShadows: 0
  minDistance: 0
  maxDistance: 250
  isFrustumCulling: 1
  isOcclusionCulling: 1
  frustumOffset: 0.2
  minCullingDistance: 0
  boundsOffset: {x: 0, y: 0, z: 0}
  isLODCrossFade: 0
  isLODCrossFadeAnimate: 1
  lodFadeTransitionWidth: 0.1
  lodBiasAdjustment: 1
  billboard:
    billboardQuality: 1
    atlasResolution: 2048
    frameCount: 8
    replaceLODCullWithBillboard: 1
    isOverridingOriginalCutoff: 0
    cutoffOverride: -1
    billboardBrightness: 0.5
    billboardDistance: 0.8
    quadSize: 0
    yPivotOffset: 0
    albedoAtlasTexture: {fileID: 0}
    normalAtlasTexture: {fileID: 0}
    customBillboardInLODGroup: 0
    useCustomBillboard: 0
    customBillboardMesh: {fileID: 0}
    customBillboardMaterial: {fileID: 0}
    isBillboardShadowCasting: 0
    billboardFaceCamPos: 0
  isBillboardDisabled: 0
  useGeneratedBillboard: 0
  checkedForBillboardExtensions: 0
  autoUpdateTransformData: 0
  treeType: 0
  warningText: 
  prototypeIndex: 5
  detailRenderMode: 2
  usePrototypeMesh: 1
  prototypeTexture: {fileID: 0}
  useCustomMaterialForTextureDetail: 0
  textureDetailCustomMaterial: {fileID: 0}
  detailDensity: 1
  useCrossQuads: 0
  quadCount: 2
  isBillboard: 0
  billboardDistance: 0.9
  billboardDistanceDebug: 0
  billboardDistanceDebugColor: {r: 1, g: 0, b: 0, a: 1}
  billboardFaceCamPos: 0
  detailHealthyColor: {r: 0.63529414, g: 1, b: 0.34509805, a: 1}
  detailDryColor: {r: 0.5661764, g: 0.5661764, b: 0.5661764, a: 1}
  noiseSpread: 0.2
  ambientOcclusion: 0.5
  gradientPower: 0.3
  windWaveTintColor: {r: 0.6007353, g: 0.7830882, b: 0.45563722, a: 1}
  windIdleSway: 0.6
  windWavesOn: 1
  windWaveSize: 0.5
  windWaveTint: 0.5
  windWaveSway: 0.3
  detailScale: {x: 0.8, y: 1.2, z: 0.8, w: 1.2}
  useCustomHealthyDryNoiseTexture: 0
  healthyDryNoiseTexture: {fileID: 0}
--- !u!114 &114658882308171974
MonoBehaviour:
  m_ObjectHideFlags: 0
  m_CorrespondingSourceObject: {fileID: 0}
  m_PrefabInstance: {fileID: 0}
  m_PrefabAsset: {fileID: 0}
  m_GameObject: {fileID: 0}
  m_Enabled: 1
  m_EditorHideFlags: 0
  m_Script: {fileID: 11500000, guid: bdeaa1ff97134aec9c8aae1beccb5637, type: 3}
  m_Name: veg_plant_01_scaled
  m_EditorClassIdentifier: 
  prefabObject: {fileID: 1939020684336960, guid: d8abb1c87ee9b224f972a785bf508e64,
    type: 3}
  isShadowCasting: 1
  useCustomShadowDistance: 0
  shadowDistance: 0
  shadowLODMap:
  - 0
  - 4
  - 0
  - 0
  - 1
  - 5
  - 0
  - 0
  - 2
  - 6
  - 0
  - 0
  - 3
  - 7
  - 0
  - 0
  useOriginalShaderForShadow: 0
  cullShadows: 0
  minDistance: 0
  maxDistance: 250
  isFrustumCulling: 1
  isOcclusionCulling: 1
  frustumOffset: 0.2
  minCullingDistance: 0
  boundsOffset: {x: 0, y: 0, z: 0}
  isLODCrossFade: 0
  isLODCrossFadeAnimate: 1
  lodFadeTransitionWidth: 0.1
  lodBiasAdjustment: 1
  billboard:
    billboardQuality: 1
    atlasResolution: 2048
    frameCount: 8
    replaceLODCullWithBillboard: 1
    isOverridingOriginalCutoff: 0
    cutoffOverride: -1
    billboardBrightness: 0.5
    billboardDistance: 0.8
    quadSize: 0
    yPivotOffset: 0
    albedoAtlasTexture: {fileID: 0}
    normalAtlasTexture: {fileID: 0}
    customBillboardInLODGroup: 0
    useCustomBillboard: 0
    customBillboardMesh: {fileID: 0}
    customBillboardMaterial: {fileID: 0}
    isBillboardShadowCasting: 0
    billboardFaceCamPos: 0
  isBillboardDisabled: 0
  useGeneratedBillboard: 0
  checkedForBillboardExtensions: 0
  autoUpdateTransformData: 0
  treeType: 0
  warningText: 
  prototypeIndex: 13
  detailRenderMode: 2
  usePrototypeMesh: 1
  prototypeTexture: {fileID: 0}
  useCustomMaterialForTextureDetail: 0
  textureDetailCustomMaterial: {fileID: 0}
  detailDensity: 1
  useCrossQuads: 0
  quadCount: 2
  isBillboard: 0
  billboardDistance: 0.9
  billboardDistanceDebug: 0
  billboardDistanceDebugColor: {r: 1, g: 0, b: 0, a: 1}
  billboardFaceCamPos: 0
  detailHealthyColor: {r: 1, g: 1, b: 1, a: 1}
  detailDryColor: {r: 1, g: 1, b: 1, a: 1}
  noiseSpread: 0.2
  ambientOcclusion: 0.5
  gradientPower: 0.3
  windWaveTintColor: {r: 1, g: 1, b: 1, a: 1}
  windIdleSway: 0.6
  windWavesOn: 1
  windWaveSize: 0.5
  windWaveTint: 0.5
  windWaveSway: 0.3
  detailScale: {x: 0.9, y: 1.1, z: 0.9, w: 1.1}
  useCustomHealthyDryNoiseTexture: 0
  healthyDryNoiseTexture: {fileID: 0}
--- !u!114 &114714411551136208
MonoBehaviour:
  m_ObjectHideFlags: 0
  m_CorrespondingSourceObject: {fileID: 0}
  m_PrefabInstance: {fileID: 0}
  m_PrefabAsset: {fileID: 0}
  m_GameObject: {fileID: 0}
  m_Enabled: 1
  m_EditorHideFlags: 0
  m_Script: {fileID: 11500000, guid: bdeaa1ff97134aec9c8aae1beccb5637, type: 3}
  m_Name: LowPlant_01_Xform
  m_EditorClassIdentifier: 
  prefabObject: {fileID: 1439678220200840, guid: 98e1bf0dc08dcfd4f9869abfa2dd6da3,
    type: 3}
  isShadowCasting: 1
  useCustomShadowDistance: 0
  shadowDistance: 0
  shadowLODMap:
  - 0
  - 4
  - 0
  - 0
  - 1
  - 5
  - 0
  - 0
  - 2
  - 6
  - 0
  - 0
  - 3
  - 7
  - 0
  - 0
  useOriginalShaderForShadow: 0
  cullShadows: 0
  minDistance: 0
  maxDistance: 250
  isFrustumCulling: 1
  isOcclusionCulling: 1
  frustumOffset: 0.2
  minCullingDistance: 0
  boundsOffset: {x: 0, y: 0, z: 0}
  isLODCrossFade: 0
  isLODCrossFadeAnimate: 1
  lodFadeTransitionWidth: 0.1
  lodBiasAdjustment: 1
  billboard:
    billboardQuality: 1
    atlasResolution: 2048
    frameCount: 8
    replaceLODCullWithBillboard: 1
    isOverridingOriginalCutoff: 0
    cutoffOverride: -1
    billboardBrightness: 0.5
    billboardDistance: 0.8
    quadSize: 0
    yPivotOffset: 0
    albedoAtlasTexture: {fileID: 0}
    normalAtlasTexture: {fileID: 0}
    customBillboardInLODGroup: 0
    useCustomBillboard: 0
    customBillboardMesh: {fileID: 0}
    customBillboardMaterial: {fileID: 0}
    isBillboardShadowCasting: 0
    billboardFaceCamPos: 0
  isBillboardDisabled: 0
  useGeneratedBillboard: 0
  checkedForBillboardExtensions: 0
  autoUpdateTransformData: 0
  treeType: 0
  warningText: 
  prototypeIndex: 10
  detailRenderMode: 2
  usePrototypeMesh: 1
  prototypeTexture: {fileID: 0}
  useCustomMaterialForTextureDetail: 0
  textureDetailCustomMaterial: {fileID: 0}
  detailDensity: 1
  useCrossQuads: 0
  quadCount: 2
  isBillboard: 0
  billboardDistance: 0.9
  billboardDistanceDebug: 0
  billboardDistanceDebugColor: {r: 1, g: 0, b: 0, a: 1}
  billboardFaceCamPos: 0
  detailHealthyColor: {r: 0.9320486, g: 1, b: 0.50735295, a: 0}
  detailDryColor: {r: 1, g: 1, b: 1, a: 0}
  noiseSpread: 0.2
  ambientOcclusion: 0.5
  gradientPower: 0.3
  windWaveTintColor: {r: 0.9660243, g: 1, b: 0.7536765, a: 0}
  windIdleSway: 0.6
  windWavesOn: 1
  windWaveSize: 0.5
  windWaveTint: 0.5
  windWaveSway: 0.3
  detailScale: {x: 0.9, y: 1.3, z: 0.9, w: 1.3}
  useCustomHealthyDryNoiseTexture: 0
  healthyDryNoiseTexture: {fileID: 0}
--- !u!114 &114741122690089212
MonoBehaviour:
  m_ObjectHideFlags: 0
  m_CorrespondingSourceObject: {fileID: 0}
  m_PrefabInstance: {fileID: 0}
  m_PrefabAsset: {fileID: 0}
  m_GameObject: {fileID: 0}
  m_Enabled: 1
  m_EditorHideFlags: 0
  m_Script: {fileID: 11500000, guid: bdeaa1ff97134aec9c8aae1beccb5637, type: 3}
  m_Name: veg_clovers_white_02_scaled
  m_EditorClassIdentifier: 
  prefabObject: {fileID: 1737782443298038, guid: 22d8bea7a70e2f84bac6bff70e6f18c4,
    type: 3}
  isShadowCasting: 1
  useCustomShadowDistance: 0
  shadowDistance: 0
  shadowLODMap:
  - 0
  - 4
  - 0
  - 0
  - 1
  - 5
  - 0
  - 0
  - 2
  - 6
  - 0
  - 0
  - 3
  - 7
  - 0
  - 0
  useOriginalShaderForShadow: 0
  cullShadows: 0
  minDistance: 0
  maxDistance: 250
  isFrustumCulling: 1
  isOcclusionCulling: 1
  frustumOffset: 0.2
  minCullingDistance: 0
  boundsOffset: {x: 0, y: 0, z: 0}
  isLODCrossFade: 0
  isLODCrossFadeAnimate: 1
  lodFadeTransitionWidth: 0.1
  lodBiasAdjustment: 1
  billboard:
    billboardQuality: 1
    atlasResolution: 2048
    frameCount: 8
    replaceLODCullWithBillboard: 1
    isOverridingOriginalCutoff: 0
    cutoffOverride: -1
    billboardBrightness: 0.5
    billboardDistance: 0.8
    quadSize: 0
    yPivotOffset: 0
    albedoAtlasTexture: {fileID: 0}
    normalAtlasTexture: {fileID: 0}
    customBillboardInLODGroup: 0
    useCustomBillboard: 0
    customBillboardMesh: {fileID: 0}
    customBillboardMaterial: {fileID: 0}
    isBillboardShadowCasting: 0
    billboardFaceCamPos: 0
  isBillboardDisabled: 0
  useGeneratedBillboard: 0
  checkedForBillboardExtensions: 0
  autoUpdateTransformData: 0
  treeType: 0
  warningText: 
  prototypeIndex: 16
  detailRenderMode: 2
  usePrototypeMesh: 1
  prototypeTexture: {fileID: 0}
  useCustomMaterialForTextureDetail: 0
  textureDetailCustomMaterial: {fileID: 0}
  detailDensity: 1
  useCrossQuads: 0
  quadCount: 2
  isBillboard: 0
  billboardDistance: 0.9
  billboardDistanceDebug: 0
  billboardDistanceDebugColor: {r: 1, g: 0, b: 0, a: 1}
  billboardFaceCamPos: 0
  detailHealthyColor: {r: 1, g: 1, b: 1, a: 1}
  detailDryColor: {r: 1, g: 1, b: 1, a: 1}
  noiseSpread: 0.2
  ambientOcclusion: 0.5
  gradientPower: 0.3
  windWaveTintColor: {r: 1, g: 1, b: 1, a: 1}
  windIdleSway: 0.6
  windWavesOn: 1
  windWaveSize: 0.5
  windWaveTint: 0.5
  windWaveSway: 0.3
  detailScale: {x: 0.9, y: 1.4, z: 0.9, w: 1.4}
  useCustomHealthyDryNoiseTexture: 0
  healthyDryNoiseTexture: {fileID: 0}
--- !u!114 &114763048092502886
MonoBehaviour:
  m_ObjectHideFlags: 0
  m_CorrespondingSourceObject: {fileID: 0}
  m_PrefabInstance: {fileID: 0}
  m_PrefabAsset: {fileID: 0}
  m_GameObject: {fileID: 0}
  m_Enabled: 1
  m_EditorHideFlags: 0
  m_Script: {fileID: 11500000, guid: bdeaa1ff97134aec9c8aae1beccb5637, type: 3}
  m_Name: L_plant_01
  m_EditorClassIdentifier: 
  prefabObject: {fileID: 1095038537586382, guid: 500333f91687c3e4b945adbf65efaa9b,
    type: 3}
  isShadowCasting: 1
  useCustomShadowDistance: 0
  shadowDistance: 0
  shadowLODMap:
  - 0
  - 4
  - 0
  - 0
  - 1
  - 5
  - 0
  - 0
  - 2
  - 6
  - 0
  - 0
  - 3
  - 7
  - 0
  - 0
  useOriginalShaderForShadow: 0
  cullShadows: 0
  minDistance: 0
  maxDistance: 250
  isFrustumCulling: 1
  isOcclusionCulling: 1
  frustumOffset: 0.2
  minCullingDistance: 0
  boundsOffset: {x: 0, y: 0, z: 0}
  isLODCrossFade: 0
  isLODCrossFadeAnimate: 1
  lodFadeTransitionWidth: 0.1
  lodBiasAdjustment: 1
  billboard:
    billboardQuality: 1
    atlasResolution: 2048
    frameCount: 8
    replaceLODCullWithBillboard: 1
    isOverridingOriginalCutoff: 0
    cutoffOverride: -1
    billboardBrightness: 0.5
    billboardDistance: 0.8
    quadSize: 0
    yPivotOffset: 0
    albedoAtlasTexture: {fileID: 0}
    normalAtlasTexture: {fileID: 0}
    customBillboardInLODGroup: 0
    useCustomBillboard: 0
    customBillboardMesh: {fileID: 0}
    customBillboardMaterial: {fileID: 0}
    isBillboardShadowCasting: 0
    billboardFaceCamPos: 0
  isBillboardDisabled: 0
  useGeneratedBillboard: 0
  checkedForBillboardExtensions: 0
  autoUpdateTransformData: 0
  treeType: 0
  warningText: 
  prototypeIndex: 6
  detailRenderMode: 2
  usePrototypeMesh: 1
  prototypeTexture: {fileID: 0}
  useCustomMaterialForTextureDetail: 0
  textureDetailCustomMaterial: {fileID: 0}
  detailDensity: 1
  useCrossQuads: 0
  quadCount: 2
  isBillboard: 0
  billboardDistance: 0.9
  billboardDistanceDebug: 0
  billboardDistanceDebugColor: {r: 1, g: 0, b: 0, a: 1}
  billboardFaceCamPos: 0
  detailHealthyColor: {r: 0.9320486, g: 1, b: 0.50735295, a: 0}
  detailDryColor: {r: 1, g: 1, b: 1, a: 0}
  noiseSpread: 0.2
  ambientOcclusion: 0.5
  gradientPower: 0.3
  windWaveTintColor: {r: 0.9660243, g: 1, b: 0.7536765, a: 0}
  windIdleSway: 0.6
  windWavesOn: 1
  windWaveSize: 0.5
  windWaveTint: 0.5
  windWaveSway: 0.3
  detailScale: {x: 0.8, y: 1.2, z: 0.8, w: 1.2}
  useCustomHealthyDryNoiseTexture: 0
  healthyDryNoiseTexture: {fileID: 0}
--- !u!114 &114764886121236204
MonoBehaviour:
  m_ObjectHideFlags: 0
  m_CorrespondingSourceObject: {fileID: 0}
  m_PrefabInstance: {fileID: 0}
  m_PrefabAsset: {fileID: 0}
  m_GameObject: {fileID: 0}
  m_Enabled: 1
  m_EditorHideFlags: 0
  m_Script: {fileID: 11500000, guid: bdeaa1ff97134aec9c8aae1beccb5637, type: 3}
  m_Name: veg_clovers_purple_02_scaled
  m_EditorClassIdentifier: 
  prefabObject: {fileID: 1996284657069314, guid: df6e6986c0120664b934864b42faece8,
    type: 3}
  isShadowCasting: 1
  useCustomShadowDistance: 0
  shadowDistance: 0
  shadowLODMap:
  - 0
  - 4
  - 0
  - 0
  - 1
  - 5
  - 0
  - 0
  - 2
  - 6
  - 0
  - 0
  - 3
  - 7
  - 0
  - 0
  useOriginalShaderForShadow: 0
  cullShadows: 0
  minDistance: 0
  maxDistance: 250
  isFrustumCulling: 1
  isOcclusionCulling: 1
  frustumOffset: 0.2
  minCullingDistance: 0
  boundsOffset: {x: 0, y: 0, z: 0}
  isLODCrossFade: 0
  isLODCrossFadeAnimate: 1
  lodFadeTransitionWidth: 0.1
  lodBiasAdjustment: 1
  billboard:
    billboardQuality: 1
    atlasResolution: 2048
    frameCount: 8
    replaceLODCullWithBillboard: 1
    isOverridingOriginalCutoff: 0
    cutoffOverride: -1
    billboardBrightness: 0.5
    billboardDistance: 0.8
    quadSize: 0
    yPivotOffset: 0
    albedoAtlasTexture: {fileID: 0}
    normalAtlasTexture: {fileID: 0}
    customBillboardInLODGroup: 0
    useCustomBillboard: 0
    customBillboardMesh: {fileID: 0}
    customBillboardMaterial: {fileID: 0}
    isBillboardShadowCasting: 0
    billboardFaceCamPos: 0
  isBillboardDisabled: 0
  useGeneratedBillboard: 0
  checkedForBillboardExtensions: 0
  autoUpdateTransformData: 0
  treeType: 0
  warningText: 
  prototypeIndex: 14
  detailRenderMode: 2
  usePrototypeMesh: 1
  prototypeTexture: {fileID: 0}
  useCustomMaterialForTextureDetail: 0
  textureDetailCustomMaterial: {fileID: 0}
  detailDensity: 1
  useCrossQuads: 0
  quadCount: 2
  isBillboard: 0
  billboardDistance: 0.9
  billboardDistanceDebug: 0
  billboardDistanceDebugColor: {r: 1, g: 0, b: 0, a: 1}
  billboardFaceCamPos: 0
  detailHealthyColor: {r: 1, g: 1, b: 1, a: 1}
  detailDryColor: {r: 1, g: 1, b: 1, a: 1}
  noiseSpread: 0.2
  ambientOcclusion: 0.5
  gradientPower: 0.3
  windWaveTintColor: {r: 1, g: 1, b: 1, a: 1}
  windIdleSway: 0.6
  windWavesOn: 1
  windWaveSize: 0.5
  windWaveTint: 0.5
  windWaveSway: 0.3
  detailScale: {x: 0.9, y: 1.4, z: 0.9, w: 1.4}
  useCustomHealthyDryNoiseTexture: 0
  healthyDryNoiseTexture: {fileID: 0}
--- !u!114 &114789456176295496
MonoBehaviour:
  m_ObjectHideFlags: 0
  m_CorrespondingSourceObject: {fileID: 0}
  m_PrefabInstance: {fileID: 0}
  m_PrefabAsset: {fileID: 0}
  m_GameObject: {fileID: 0}
  m_Enabled: 1
  m_EditorHideFlags: 0
  m_Script: {fileID: 11500000, guid: bdeaa1ff97134aec9c8aae1beccb5637, type: 3}
  m_Name: L_plant_02
  m_EditorClassIdentifier: 
  prefabObject: {fileID: 1058017437352794, guid: 3b964f61fa477f046b74aba79c24f1a4,
    type: 3}
  isShadowCasting: 1
  useCustomShadowDistance: 0
  shadowDistance: 0
  shadowLODMap:
  - 0
  - 4
  - 0
  - 0
  - 1
  - 5
  - 0
  - 0
  - 2
  - 6
  - 0
  - 0
  - 3
  - 7
  - 0
  - 0
  useOriginalShaderForShadow: 0
  cullShadows: 0
  minDistance: 0
  maxDistance: 250
  isFrustumCulling: 1
  isOcclusionCulling: 1
  frustumOffset: 0.2
  minCullingDistance: 0
  boundsOffset: {x: 0, y: 0, z: 0}
  isLODCrossFade: 0
  isLODCrossFadeAnimate: 1
  lodFadeTransitionWidth: 0.1
  lodBiasAdjustment: 1
  billboard:
    billboardQuality: 1
    atlasResolution: 2048
    frameCount: 8
    replaceLODCullWithBillboard: 1
    isOverridingOriginalCutoff: 0
    cutoffOverride: -1
    billboardBrightness: 0.5
    billboardDistance: 0.8
    quadSize: 0
    yPivotOffset: 0
    albedoAtlasTexture: {fileID: 0}
    normalAtlasTexture: {fileID: 0}
    customBillboardInLODGroup: 0
    useCustomBillboard: 0
    customBillboardMesh: {fileID: 0}
    customBillboardMaterial: {fileID: 0}
    isBillboardShadowCasting: 0
    billboardFaceCamPos: 0
  isBillboardDisabled: 0
  useGeneratedBillboard: 0
  checkedForBillboardExtensions: 0
  autoUpdateTransformData: 0
  treeType: 0
  warningText: 
  prototypeIndex: 7
  detailRenderMode: 2
  usePrototypeMesh: 1
  prototypeTexture: {fileID: 0}
  useCustomMaterialForTextureDetail: 0
  textureDetailCustomMaterial: {fileID: 0}
  detailDensity: 1
  useCrossQuads: 0
  quadCount: 2
  isBillboard: 0
  billboardDistance: 0.9
  billboardDistanceDebug: 0
  billboardDistanceDebugColor: {r: 1, g: 0, b: 0, a: 1}
  billboardFaceCamPos: 0
  detailHealthyColor: {r: 0.5058824, g: 0.6117647, b: 1, a: 0}
  detailDryColor: {r: 0.47058824, g: 0.53333336, b: 0.6392157, a: 0}
  noiseSpread: 0.2
  ambientOcclusion: 0.5
  gradientPower: 0.3
  windWaveTintColor: {r: 0.4882353, g: 0.57254905, b: 0.81960785, a: 0}
  windIdleSway: 0.6
  windWavesOn: 1
  windWaveSize: 0.5
  windWaveTint: 0.5
  windWaveSway: 0.3
  detailScale: {x: 0.8, y: 1.2, z: 0.8, w: 1.2}
  useCustomHealthyDryNoiseTexture: 0
  healthyDryNoiseTexture: {fileID: 0}
